16 Univariate EDA – An Introduction to Business Analytics for Entrepreneurs
…
Age: The age of the customer in years. Age is an important demographic factor for UrbanFind, as different age groups may have distinct preferences for technology, fashion, or outdoor activities.

Spending: The amount (in dollars) each customer reported spending on lifestyle-related products in the past month. This includes items like tech gadgets, health products, and outdoor gear. UrbanFind aims to understand the range of spending to help design product bundles and set price points.

Product Interest: The product category the customer is most interested in, chosen from four options: Tech, Fashion, Outdoors, and Health. This helps UrbanFind determine which product lines to prioritize for marketing and inventory.

Region: The geographic region where each customer lives, categorized into North, South, East, and West. This variable provides insights into potential regional differences in product preferences and spending behaviors.

Each of these variables gives us a unique lens through which to view the customer base. By examining them individually, we gain insights that will inform how UrbanFind can tailor its offerings to meet customer needs.

16.3.1.2 Viewing the UrbanFind Dataset

Here’s a preview of the customer_data dataset. Notice how the values of each variable vary across observations. In other words, age, spending, product_interest, and region are all variables that provide different types of information.

# A tibble: 100 × 4
     age spending product_interest region
   <dbl>    <dbl> <chr>            <chr> 
 1    33      495 Fashion          East  
 2    18      458 Fashion          North 
 3    32      491 Health           South 
 4    30      420 Fashion          South 
 5    85      664 Fashion          East  
 6    35      533 Fashion          East  
 7    31      526 Health           South 
 8    14      350 Fashion          South 
 9    24      471 Health           East  
10    NA      424 Fashion          South 
# ℹ 90 more rows
…
When we talk about a “grading curve,” we’re referring to a process of normalizing scores from any distribution to align more closely with a normal distribution (bell-shaped curve). In a class where scores are naturally left-skewed (most students performed below average), applying a curve can raise scores, moving the class average higher and “helping” those below the mean. However, if scores are right-skewed (most students scored high), curving might shift grades downward, making a higher score necessary for an A grade. The idea is to standardize performance so that the distribution reflects the relative achievement of the class, rather than an absolute scale.

Just as with any distribution, whether the curve benefits or lowers your score depends on the original shape of the data—in this case, the pattern of class scores. Curving aims to provide a fair comparison among students by normalizing grades based on the overall class distribution, regardless of whether the scores are clustered, skewed, or even bimodal.

16.3.4 Visualizing a Distribution

Now that we’ve explored the shapes of various distributions, let’s try plotting them to see how the distributions of different variables may look.

One way to see a distribution is with a histogram, which shows the frequency of different value ranges within a variable. Histograms are useful for visualizing the shape of the data—whether it clusters in the middle, leans to one side, or has multiple peaks. Understanding this shape provides valuable insights for interpreting data trends and making decisions based on the data.

16.3.5 Demonstration: Visualizing a Normal Distribution

Let’s start by creating a histogram of a variable that follows a normal distribution. The dataset includes 1000 observations of the normally-distributed variable called normal_data. A portion is shown here:

# A tibble: 1,000 × 1
     value
     <dbl>
 1  1.37  
 2 -0.565 
 3  0.363 
 4  0.633 
 5  0.404 
 6 -0.106 
 7  1.51  
 8 -0.0947
 9  2.02  
10 -0.0627
# ℹ 990 more rows
…
