15 Visualizing Data – An Introduction to Business Analytics for Entrepreneurs
…
Total_Production_Days: the total number of days required to build and deliver a ship.

Direct_Hours: the total direct labor hours spent on constructing each ship.

We’ll use these two variables to create a scatter plot and explore their relationship.

18.2 Import the data

Before we create the plot, we first need to import the dataset. The Liberty ship data is stored in a CSV file named liberty_ship.csv, located in the data subdirectory.

# Import the cupcakes.csv dataset
liberty_ship_data <- read_csv("data/liberty_ship.csv")
liberty_ship_data

# A tibble: 1,571 × 18
    Unit   Way Keel_Date Delivery_Date Yard_Cost Procurement_Cost
   <dbl> <dbl> <chr>     <chr>             <dbl>            <dbl>
 1     1     1 4/30/41   12/30/41        1613203           888165
 2     2     2 5/15/41   1/19/42         1545574           888165
 3     3     3 6/21/41   1/29/42         1470687           888165
 4     4     4 6/21/41   2/9/42          1421123           888165
 5     5     5 7/15/41   2/20/42         1397852           888165
 6     6     6 7/15/41   2/27/42         1354256           888165
 7     8     8 8/25/41   3/30/42         1267658           888165
 8     9     9 9/3/41    3/18/42         1151856           888165
 9    10    10 9/12/41   4/11/42         1236111           888165
10    11    11 9/22/41   5/9/42          1236111           888165
# ℹ 1,561 more rows
# ℹ 12 more variables: Facilities_Cost <dbl>, Admin_Cost <dbl>, TC <dbl>,
#   VC <dbl>, FC <dbl>, Yard <chr>, Direct_Hours <dbl>, Indirect_Hours <dbl>,
#   Total_ManHours <dbl>, Way_Days <dbl>, Outfitting_Days <dbl>,
#   Total_Production_Days <dbl>
…
